<svg width="513" height="190" viewBox="0 0 513 190" fill="none" xmlns="http://www.w3.org/2000/svg">
<g clip-path="url(#clip0)">
<path fill-rule="evenodd" clip-rule="evenodd" d="M334.904 70.6128C338.11 107.054 328.449 152.188 296.514 173.856C287.708 179.851 277.149 182.42 266.547 182.934C244.488 184.005 215.076 173.556 203.106 153.644C196.394 142.51 195.539 130.392 189.126 115.704C184.98 106.198 178.396 98.2328 173.01 89.4116C166.554 78.7918 161.296 60.9779 162.108 45.7762C162.237 43.6351 165.443 27.5342 167.837 24.1084C185.022 -0.51406 207.039 -3.38312 237.947 2.61193C243.804 3.76811 249.66 5.39534 255.474 7.23667C269.454 11.6473 270.522 13.874 286.554 15.9295C304.979 18.3275 315.025 11.6901 327.081 20.8112C343.582 33.4436 333.707 57.0383 334.904 70.6128Z" fill="url(#paint0_linear)"/>
<path fill-rule="evenodd" clip-rule="evenodd" d="M246.968 77.5928H266.077V89.9683L271.805 180.151H241.196L246.968 89.9683V77.5928Z" fill="url(#paint1_linear)"/>
<path fill-rule="evenodd" clip-rule="evenodd" d="M246.967 60.4214H266.076V72.7968H246.967V60.4214ZM255.047 65.2174H257.996V70.3988H260.604V62.8622H252.439V70.3988H255.047V65.2174ZM261.374 62.8622V70.3988H265.264V62.8622H261.374ZM251.627 70.3988V62.8622H247.736V70.3988H251.627Z" fill="url(#paint2_linear)"/>
<path fill-rule="evenodd" clip-rule="evenodd" d="M252.226 51.4717H260.819L265.094 55.711H247.908L252.226 51.4717Z" fill="url(#paint3_linear)"/>
<path fill-rule="evenodd" clip-rule="evenodd" d="M245.514 112.535H267.487L268.214 123.797H244.787L245.514 112.535ZM244.103 72.8396H268.941V77.5928H244.103V72.8396ZM244.103 55.7109H268.941V60.4641H244.103V55.7109ZM246.967 89.9683H266.077L266.803 101.23H246.241L246.967 89.9683ZM242.65 157.627H270.352L271.078 168.889H241.923L242.65 157.627ZM244.103 135.06H268.941L269.668 146.322H243.376L244.103 135.06Z" fill="url(#paint4_linear)"/>
<path d="M259.75 81.104H253.295V86.4567H259.75V81.104Z" fill="#9B9B9B"/>
<path d="M261.63 163.493H251.37V180.194H261.63V163.493Z" fill="#979797"/>
<path fill-rule="evenodd" clip-rule="evenodd" d="M252.011 175.312C269.154 176.34 272.104 181.95 298.951 183.534C310.066 184.176 311.904 184.604 320.497 189.957H192.546C200.583 186.874 209.09 184.219 212.382 181.521C220.077 175.269 225.25 177.325 231.833 177.967C241.024 178.952 243.931 174.841 252.011 175.312Z" fill="url(#paint5_linear)"/>
<mask id="mask0" mask-type="alpha" maskUnits="userSpaceOnUse" x="162" y="-1" width="175" height="185">
<path fill-rule="evenodd" clip-rule="evenodd" d="M334.903 70.6128C338.109 107.054 328.448 152.188 296.513 173.856C287.707 179.851 277.148 182.42 266.546 182.934C244.487 184.005 215.075 173.556 203.105 153.644C196.393 142.51 195.538 130.392 189.125 115.704C184.979 106.198 178.395 98.2328 173.009 89.4116C166.553 78.7918 161.295 60.9779 162.107 45.7762C162.236 43.6351 165.442 27.5342 167.836 24.1084C185.021 -0.51406 207.038 -3.38312 237.946 2.61193C243.803 3.76811 249.659 5.39534 255.473 7.23667C269.453 11.6473 270.521 13.874 286.553 15.9295C304.978 18.3275 315.024 11.6901 327.08 20.8112C343.581 33.4436 333.706 57.0383 334.903 70.6128Z" fill="url(#paint6_linear)"/>
</mask>
<g mask="url(#mask0)">
<path d="M266.295 61.5945V72.0268L549.118 80.903V52.7095" fill="url(#paint7_linear)" fill-opacity="0.7"/>
<path d="M148.146 75.3869L246.705 72.1977V61.4148L148.146 58.2256" fill="url(#paint8_linear)"/>
</g>
<path fill-rule="evenodd" clip-rule="evenodd" d="M400.61 117.589L442.89 66.6307V117.589H400.61ZM442.89 188.587H490.47V154.116H513V117.332H490.47V9.84912H440.88L348.968 119.387L357.048 154.116H442.89V188.587Z" fill="url(#paint9_linear)"/>
<path fill-rule="evenodd" clip-rule="evenodd" d="M51.642 117.589L93.9218 66.6307V117.589H51.642ZM93.879 188.587H141.46V154.116H163.989V117.332H141.46V9.84912H91.8698L0 119.387L8.07975 154.116H93.879V188.587Z" fill="url(#paint10_linear)"/>
</g>
<defs>
<linearGradient id="paint0_linear" x1="249.373" y1="183.032" x2="249.373" y2="-0.000208067" gradientUnits="userSpaceOnUse">
<stop stop-color="#144B8B"/>
<stop offset="0.4969" stop-color="#5779A0"/>
<stop offset="1" stop-color="#092B52"/>
</linearGradient>
<linearGradient id="paint1_linear" x1="246.949" y1="128.869" x2="266.063" y2="128.869" gradientUnits="userSpaceOnUse">
<stop stop-color="white"/>
<stop offset="1" stop-color="#A8A8AF"/>
</linearGradient>
<linearGradient id="paint2_linear" x1="246.95" y1="66.6379" x2="266.067" y2="66.6379" gradientUnits="userSpaceOnUse">
<stop stop-color="white"/>
<stop offset="1" stop-color="#9B9B9B"/>
</linearGradient>
<linearGradient id="paint3_linear" x1="251.133" y1="53.5865" x2="261.885" y2="53.5865" gradientUnits="userSpaceOnUse">
<stop stop-color="white"/>
<stop offset="1" stop-color="#A8A8AF"/>
</linearGradient>
<linearGradient id="paint4_linear" x1="241.932" y1="112.29" x2="271.081" y2="112.29" gradientUnits="userSpaceOnUse">
<stop/>
<stop offset="0.390625" stop-color="#C4C4C4"/>
<stop offset="0.807292" stop-color="#0C0F13"/>
</linearGradient>
<linearGradient id="paint5_linear" x1="161.483" y1="182.642" x2="344.919" y2="182.642" gradientUnits="userSpaceOnUse">
<stop stop-color="#DADADA"/>
<stop offset="0.0680481" stop-color="#B2B2B2"/>
<stop offset="0.5271" stop-color="#979797"/>
<stop offset="0.8477" stop-color="#4A4A4A"/>
<stop offset="1" stop-color="#4A4A4A"/>
</linearGradient>
<linearGradient id="paint6_linear" x1="249.372" y1="183.032" x2="249.372" y2="-0.000208067" gradientUnits="userSpaceOnUse">
<stop stop-color="#144B8B"/>
<stop offset="0.4969" stop-color="#FBE6B5"/>
<stop offset="1" stop-color="#144B8B"/>
</linearGradient>
<linearGradient id="paint7_linear" x1="336.695" y1="66.8063" x2="266.295" y2="66.8063" gradientUnits="userSpaceOnUse">
<stop stop-color="white"/>
<stop offset="1" stop-color="white" stop-opacity="0"/>
</linearGradient>
<linearGradient id="paint8_linear" x1="246.705" y1="66.8062" x2="162.532" y2="66.8062" gradientUnits="userSpaceOnUse">
<stop stop-color="white" stop-opacity="0.18"/>
<stop offset="1" stop-color="white"/>
</linearGradient>
<linearGradient id="paint9_linear" x1="430.978" y1="188.575" x2="430.978" y2="9.84664" gradientUnits="userSpaceOnUse">
<stop stop-color="#FBE3AB"/>
<stop offset="1" stop-color="#E9B421"/>
</linearGradient>
<linearGradient id="paint10_linear" x1="82.0015" y1="188.575" x2="82.0015" y2="9.84664" gradientUnits="userSpaceOnUse">
<stop stop-color="#FBE2A7"/>
<stop offset="1" stop-color="#EAB524"/>
</linearGradient>
<clipPath id="clip0">
<rect width="513" height="190" fill="white"/>
</clipPath>
</defs>
</svg>
